^C:\USERS\USER\DESKTOP\OBIECTE GRAFICA\OPENGL_4_APPLICATION_VS2015\OPENGL_4_APPLICATION_VS2015\OPENGL_4_APPLICATION_VS2015\STDAFX.CPP
C:\USERS\USER\DESKTOP\OBIECTE GRAFICA\OPENGL_4_APPLICATION_VS2015\OPENGL_4_APPLICATION_VS2015\OPENGL_4_APPLICATION_VS2015\RELEASE\OPENGL_4_APPLICATION_VS2015.PCH
C:\USERS\USER\DESKTOP\OBIECTE GRAFICA\OPENGL_4_APPLICATION_VS2015\OPENGL_4_APPLICATION_VS2015\OPENGL_4_APPLICATION_VS2015\RELEASE\VC142.PDB
C:\USERS\USER\DESKTOP\OBIECTE GRAFICA\OPENGL_4_APPLICATION_VS2015\OPENGL_4_APPLICATION_VS2015\OPENGL_4_APPLICATION_VS2015\RELEASE\STDAFX.OBJ
^C:\USERS\USER\DESKTOP\OBIECTE GRAFICA\OPENGL_4_APPLICATION_VS2015\OPENGL_4_APPLICATION_VS2015\OPENGL_4_APPLICATION_VS2015\CAMERA.CPP|C:\USERS\USER\DESKTOP\OBIECTE GRAFICA\OPENGL_4_APPLICATION_VS2015\OPENGL_4_APPLICATION_VS2015\OPENGL_4_APPLICATION_VS2015\MESH.CPP|C:\USERS\USER\DESKTOP\OBIECTE GRAFICA\OPENGL_4_APPLICATION_VS2015\OPENGL_4_APPLICATION_VS2015\OPENGL_4_APPLICATION_VS2015\MODEL3D.CPP|C:\USERS\USER\DESKTOP\OBIECTE GRAFICA\OPENGL_4_APPLICATION_VS2015\OPENGL_4_APPLICATION_VS2015\OPENGL_4_APPLICATION_VS2015\OPENGL_4_APPLICATION_VS2015.CPP|C:\USERS\USER\DESKTOP\OBIECTE GRAFICA\OPENGL_4_APPLICATION_VS2015\OPENGL_4_APPLICATION_VS2015\OPENGL_4_APPLICATION_VS2015\SHADER.CPP
C:\USERS\USER\DESKTOP\OBIECTE GRAFICA\OPENGL_4_APPLICATION_VS2015\OPENGL_4_APPLICATION_VS2015\OPENGL_4_APPLICATION_VS2015\RELEASE\VC142.PDB
C:\USERS\USER\DESKTOP\OBIECTE GRAFICA\OPENGL_4_APPLICATION_VS2015\OPENGL_4_APPLICATION_VS2015\OPENGL_4_APPLICATION_VS2015\RELEASE\SHADER.OBJ
C:\USERS\USER\DESKTOP\OBIECTE GRAFICA\OPENGL_4_APPLICATION_VS2015\OPENGL_4_APPLICATION_VS2015\OPENGL_4_APPLICATION_VS2015\RELEASE\OPENGL_4_APPLICATION_VS2015.OBJ
C:\USERS\USER\DESKTOP\OBIECTE GRAFICA\OPENGL_4_APPLICATION_VS2015\OPENGL_4_APPLICATION_VS2015\OPENGL_4_APPLICATION_VS2015\RELEASE\MODEL3D.OBJ
C:\USERS\USER\DESKTOP\OBIECTE GRAFICA\OPENGL_4_APPLICATION_VS2015\OPENGL_4_APPLICATION_VS2015\OPENGL_4_APPLICATION_VS2015\RELEASE\MESH.OBJ
C:\USERS\USER\DESKTOP\OBIECTE GRAFICA\OPENGL_4_APPLICATION_VS2015\OPENGL_4_APPLICATION_VS2015\OPENGL_4_APPLICATION_VS2015\RELEASE\CAMERA.OBJ
^C:\USERS\USER\DESKTOP\OBIECTE GRAFICA\OPENGL_4_APPLICATION_VS2015\OPENGL_4_APPLICATION_VS2015\OPENGL_4_APPLICATION_VS2015\MESH.CPP
C:\USERS\USER\DESKTOP\OBIECTE GRAFICA\OPENGL_4_APPLICATION_VS2015\OPENGL_4_APPLICATION_VS2015\OPENGL_4_APPLICATION_VS2015\RELEASE\VC142.PDB
^C:\USERS\USER\DESKTOP\OBIECTE GRAFICA\OPENGL_4_APPLICATION_VS2015\OPENGL_4_APPLICATION_VS2015\OPENGL_4_APPLICATION_VS2015\SHADER.CPP
C:\USERS\USER\DESKTOP\OBIECTE GRAFICA\OPENGL_4_APPLICATION_VS2015\OPENGL_4_APPLICATION_VS2015\OPENGL_4_APPLICATION_VS2015\RELEASE\VC142.PDB
^C:\USERS\USER\DESKTOP\OBIECTE GRAFICA\OPENGL_4_APPLICATION_VS2015\OPENGL_4_APPLICATION_VS2015\OPENGL_4_APPLICATION_VS2015\STB_IMAGE.C
C:\USERS\USER\DESKTOP\OBIECTE GRAFICA\OPENGL_4_APPLICATION_VS2015\OPENGL_4_APPLICATION_VS2015\OPENGL_4_APPLICATION_VS2015\RELEASE\VC142.PDB
C:\USERS\USER\DESKTOP\OBIECTE GRAFICA\OPENGL_4_APPLICATION_VS2015\OPENGL_4_APPLICATION_VS2015\OPENGL_4_APPLICATION_VS2015\RELEASE\STB_IMAGE.OBJ
^C:\USERS\USER\DESKTOP\OBIECTE GRAFICA\OPENGL_4_APPLICATION_VS2015\OPENGL_4_APPLICATION_VS2015\OPENGL_4_APPLICATION_VS2015\MODEL3D.CPP
C:\USERS\USER\DESKTOP\OBIECTE GRAFICA\OPENGL_4_APPLICATION_VS2015\OPENGL_4_APPLICATION_VS2015\OPENGL_4_APPLICATION_VS2015\RELEASE\VC142.PDB
C:\USERS\USER\DESKTOP\OBIECTE GRAFICA\OPENGL_4_APPLICATION_VS2015\OPENGL_4_APPLICATION_VS2015\OPENGL_4_APPLICATION_VS2015\RELEASE\MODEL3D.OBJ
^C:\USERS\USER\DESKTOP\OBIECTE GRAFICA\OPENGL_4_APPLICATION_VS2015\OPENGL_4_APPLICATION_VS2015\OPENGL_4_APPLICATION_VS2015\CAMERA.CPP|C:\USERS\USER\DESKTOP\OBIECTE GRAFICA\OPENGL_4_APPLICATION_VS2015\OPENGL_4_APPLICATION_VS2015\OPENGL_4_APPLICATION_VS2015\OPENGL_4_APPLICATION_VS2015.CPP
C:\USERS\USER\DESKTOP\OBIECTE GRAFICA\OPENGL_4_APPLICATION_VS2015\OPENGL_4_APPLICATION_VS2015\OPENGL_4_APPLICATION_VS2015\RELEASE\VC142.PDB
C:\USERS\USER\DESKTOP\OBIECTE GRAFICA\OPENGL_4_APPLICATION_VS2015\OPENGL_4_APPLICATION_VS2015\OPENGL_4_APPLICATION_VS2015\RELEASE\OPENGL_4_APPLICATION_VS2015.OBJ
C:\USERS\USER\DESKTOP\OBIECTE GRAFICA\OPENGL_4_APPLICATION_VS2015\OPENGL_4_APPLICATION_VS2015\OPENGL_4_APPLICATION_VS2015\RELEASE\CAMERA.OBJ
^C:\USERS\USER\DESKTOP\OBIECTE GRAFICA\OPENGL_4_APPLICATION_VS2015\OPENGL_4_APPLICATION_VS2015\OPENGL_4_APPLICATION_VS2015\CAMERA.CPP
C:\USERS\USER\DESKTOP\OBIECTE GRAFICA\OPENGL_4_APPLICATION_VS2015\OPENGL_4_APPLICATION_VS2015\OPENGL_4_APPLICATION_VS2015\RELEASE\VC142.PDB
^C:\USERS\USER\DESKTOP\OBIECTE GRAFICA\OPENGL_4_APPLICATION_VS2015\OPENGL_4_APPLICATION_VS2015\OPENGL_4_APPLICATION_VS2015\OPENGL_4_APPLICATION_VS2015.CPP|C:\USERS\USER\DESKTOP\OBIECTE GRAFICA\OPENGL_4_APPLICATION_VS2015\OPENGL_4_APPLICATION_VS2015\OPENGL_4_APPLICATION_VS2015\SKYBOX.CPP
C:\USERS\USER\DESKTOP\OBIECTE GRAFICA\OPENGL_4_APPLICATION_VS2015\OPENGL_4_APPLICATION_VS2015\OPENGL_4_APPLICATION_VS2015\RELEASE\VC142.PDB
C:\USERS\USER\DESKTOP\OBIECTE GRAFICA\OPENGL_4_APPLICATION_VS2015\OPENGL_4_APPLICATION_VS2015\OPENGL_4_APPLICATION_VS2015\RELEASE\SKYBOX.OBJ
C:\USERS\USER\DESKTOP\OBIECTE GRAFICA\OPENGL_4_APPLICATION_VS2015\OPENGL_4_APPLICATION_VS2015\OPENGL_4_APPLICATION_VS2015\RELEASE\OPENGL_4_APPLICATION_VS2015.OBJ
^C:\USERS\USER\DESKTOP\OBIECTE GRAFICA\OPENGL_4_APPLICATION_VS2015\OPENGL_4_APPLICATION_VS2015\OPENGL_4_APPLICATION_VS2015\SKYBOX.CPP
C:\USERS\USER\DESKTOP\OBIECTE GRAFICA\OPENGL_4_APPLICATION_VS2015\OPENGL_4_APPLICATION_VS2015\OPENGL_4_APPLICATION_VS2015\RELEASE\VC142.PDB
^C:\USERS\USER\DESKTOP\OBIECTE GRAFICA\OPENGL_4_APPLICATION_VS2015\OPENGL_4_APPLICATION_VS2015\OPENGL_4_APPLICATION_VS2015\OPENGL_4_APPLICATION_VS2015.CPP
C:\USERS\USER\DESKTOP\OBIECTE GRAFICA\OPENGL_4_APPLICATION_VS2015\OPENGL_4_APPLICATION_VS2015\OPENGL_4_APPLICATION_VS2015\RELEASE\VC142.PDB
C:\USERS\USER\DESKTOP\OBIECTE GRAFICA\OPENGL_4_APPLICATION_VS2015\OPENGL_4_APPLICATION_VS2015\OPENGL_4_APPLICATION_VS2015\RELEASE\OPENGL_4_APPLICATION_VS2015.OBJ
^F:\PROIECT GRAFICA ARMATA\OPENGL_4_APPLICATION_VS2015\OPENGL_4_APPLICATION_VS2015\OPENGL_4_APPLICATION_VS2015\STDAFX.CPP
F:\PROIECT GRAFICA ARMATA\OPENGL_4_APPLICATION_VS2015\OPENGL_4_APPLICATION_VS2015\OPENGL_4_APPLICATION_VS2015\RELEASE\OPENGL_4_APPLICATION_VS2015.PCH
F:\PROIECT GRAFICA ARMATA\OPENGL_4_APPLICATION_VS2015\OPENGL_4_APPLICATION_VS2015\OPENGL_4_APPLICATION_VS2015\RELEASE\VC142.PDB
F:\PROIECT GRAFICA ARMATA\OPENGL_4_APPLICATION_VS2015\OPENGL_4_APPLICATION_VS2015\OPENGL_4_APPLICATION_VS2015\RELEASE\STDAFX.OBJ
^F:\PROIECT GRAFICA ARMATA\OPENGL_4_APPLICATION_VS2015\OPENGL_4_APPLICATION_VS2015\OPENGL_4_APPLICATION_VS2015\CAMERA.CPP|F:\PROIECT GRAFICA ARMATA\OPENGL_4_APPLICATION_VS2015\OPENGL_4_APPLICATION_VS2015\OPENGL_4_APPLICATION_VS2015\MESH.CPP|F:\PROIECT GRAFICA ARMATA\OPENGL_4_APPLICATION_VS2015\OPENGL_4_APPLICATION_VS2015\OPENGL_4_APPLICATION_VS2015\MODEL3D.CPP|F:\PROIECT GRAFICA ARMATA\OPENGL_4_APPLICATION_VS2015\OPENGL_4_APPLICATION_VS2015\OPENGL_4_APPLICATION_VS2015\OPENGL_4_APPLICATION_VS2015.CPP|F:\PROIECT GRAFICA ARMATA\OPENGL_4_APPLICATION_VS2015\OPENGL_4_APPLICATION_VS2015\OPENGL_4_APPLICATION_VS2015\SHADER.CPP|F:\PROIECT GRAFICA ARMATA\OPENGL_4_APPLICATION_VS2015\OPENGL_4_APPLICATION_VS2015\OPENGL_4_APPLICATION_VS2015\SKYBOX.CPP
F:\PROIECT GRAFICA ARMATA\OPENGL_4_APPLICATION_VS2015\OPENGL_4_APPLICATION_VS2015\OPENGL_4_APPLICATION_VS2015\RELEASE\VC142.PDB
F:\PROIECT GRAFICA ARMATA\OPENGL_4_APPLICATION_VS2015\OPENGL_4_APPLICATION_VS2015\OPENGL_4_APPLICATION_VS2015\RELEASE\SKYBOX.OBJ
F:\PROIECT GRAFICA ARMATA\OPENGL_4_APPLICATION_VS2015\OPENGL_4_APPLICATION_VS2015\OPENGL_4_APPLICATION_VS2015\RELEASE\SHADER.OBJ
F:\PROIECT GRAFICA ARMATA\OPENGL_4_APPLICATION_VS2015\OPENGL_4_APPLICATION_VS2015\OPENGL_4_APPLICATION_VS2015\RELEASE\OPENGL_4_APPLICATION_VS2015.OBJ
F:\PROIECT GRAFICA ARMATA\OPENGL_4_APPLICATION_VS2015\OPENGL_4_APPLICATION_VS2015\OPENGL_4_APPLICATION_VS2015\RELEASE\MODEL3D.OBJ
F:\PROIECT GRAFICA ARMATA\OPENGL_4_APPLICATION_VS2015\OPENGL_4_APPLICATION_VS2015\OPENGL_4_APPLICATION_VS2015\RELEASE\MESH.OBJ
F:\PROIECT GRAFICA ARMATA\OPENGL_4_APPLICATION_VS2015\OPENGL_4_APPLICATION_VS2015\OPENGL_4_APPLICATION_VS2015\RELEASE\CAMERA.OBJ
^F:\PROIECT GRAFICA ARMATA\OPENGL_4_APPLICATION_VS2015\OPENGL_4_APPLICATION_VS2015\OPENGL_4_APPLICATION_VS2015\CAMERA.CPP
F:\PROIECT GRAFICA ARMATA\OPENGL_4_APPLICATION_VS2015\OPENGL_4_APPLICATION_VS2015\OPENGL_4_APPLICATION_VS2015\RELEASE\VC142.PDB
^F:\PROIECT GRAFICA ARMATA\OPENGL_4_APPLICATION_VS2015\OPENGL_4_APPLICATION_VS2015\OPENGL_4_APPLICATION_VS2015\MESH.CPP
F:\PROIECT GRAFICA ARMATA\OPENGL_4_APPLICATION_VS2015\OPENGL_4_APPLICATION_VS2015\OPENGL_4_APPLICATION_VS2015\RELEASE\VC142.PDB
^F:\PROIECT GRAFICA ARMATA\OPENGL_4_APPLICATION_VS2015\OPENGL_4_APPLICATION_VS2015\OPENGL_4_APPLICATION_VS2015\MODEL3D.CPP
F:\PROIECT GRAFICA ARMATA\OPENGL_4_APPLICATION_VS2015\OPENGL_4_APPLICATION_VS2015\OPENGL_4_APPLICATION_VS2015\RELEASE\VC142.PDB
^F:\PROIECT GRAFICA ARMATA\OPENGL_4_APPLICATION_VS2015\OPENGL_4_APPLICATION_VS2015\OPENGL_4_APPLICATION_VS2015\OPENGL_4_APPLICATION_VS2015.CPP
F:\PROIECT GRAFICA ARMATA\OPENGL_4_APPLICATION_VS2015\OPENGL_4_APPLICATION_VS2015\OPENGL_4_APPLICATION_VS2015\RELEASE\VC142.PDB
^F:\PROIECT GRAFICA ARMATA\OPENGL_4_APPLICATION_VS2015\OPENGL_4_APPLICATION_VS2015\OPENGL_4_APPLICATION_VS2015\SHADER.CPP
F:\PROIECT GRAFICA ARMATA\OPENGL_4_APPLICATION_VS2015\OPENGL_4_APPLICATION_VS2015\OPENGL_4_APPLICATION_VS2015\RELEASE\VC142.PDB
^F:\PROIECT GRAFICA ARMATA\OPENGL_4_APPLICATION_VS2015\OPENGL_4_APPLICATION_VS2015\OPENGL_4_APPLICATION_VS2015\SKYBOX.CPP
F:\PROIECT GRAFICA ARMATA\OPENGL_4_APPLICATION_VS2015\OPENGL_4_APPLICATION_VS2015\OPENGL_4_APPLICATION_VS2015\RELEASE\VC142.PDB
^F:\PROIECT GRAFICA ARMATA\OPENGL_4_APPLICATION_VS2015\OPENGL_4_APPLICATION_VS2015\OPENGL_4_APPLICATION_VS2015\STB_IMAGE.C
F:\PROIECT GRAFICA ARMATA\OPENGL_4_APPLICATION_VS2015\OPENGL_4_APPLICATION_VS2015\OPENGL_4_APPLICATION_VS2015\RELEASE\VC142.PDB
F:\PROIECT GRAFICA ARMATA\OPENGL_4_APPLICATION_VS2015\OPENGL_4_APPLICATION_VS2015\OPENGL_4_APPLICATION_VS2015\RELEASE\STB_IMAGE.OBJ
