^C:\USERS\LUCIA\DESKTOP\LABORATORY WORK 9 RESOURCES-11.11.2019\OPENGL_4_APPLICATION_VS2015\OPENGL_4_APPLICATION_VS2015\OPENGL_4_APPLICATION_VS2015\RELEASE\CAMERA.OBJ|C:\USERS\LUCIA\DESKTOP\LABORATORY WORK 9 RESOURCES-11.11.2019\OPENGL_4_APPLICATION_VS2015\OPENGL_4_APPLICATION_VS2015\OPENGL_4_APPLICATION_VS2015\RELEASE\MESH.OBJ|C:\USERS\LUCIA\DESKTOP\LABORATORY WORK 9 RESOURCES-11.11.2019\OPENGL_4_APPLICATION_VS2015\OPENGL_4_APPLICATION_VS2015\OPENGL_4_APPLICATION_VS2015\RELEASE\MODEL3D.OBJ|C:\USERS\LUCIA\DESKTOP\LABORATORY WORK 9 RESOURCES-11.11.2019\OPENGL_4_APPLICATION_VS2015\OPENGL_4_APPLICATION_VS2015\OPENGL_4_APPLICATION_VS2015\RELEASE\OPENGL_4_APPLICATION_VS2015.OBJ|C:\USERS\LUCIA\DESKTOP\LABORATORY WORK 9 RESOURCES-11.11.2019\OPENGL_4_APPLICATION_VS2015\OPENGL_4_APPLICATION_VS2015\OPENGL_4_APPLICATION_VS2015\RELEASE\SHADER.OBJ|C:\USERS\LUCIA\DESKTOP\LABORATORY WORK 9 RESOURCES-11.11.2019\OPENGL_4_APPLICATION_VS2015\OPENGL_4_APPLICATION_VS2015\OPENGL_4_APPLICATION_VS2015\RELEASE\STB_IMAGE.OBJ|C:\USERS\LUCIA\DESKTOP\LABORATORY WORK 9 RESOURCES-11.11.2019\OPENGL_4_APPLICATION_VS2015\OPENGL_4_APPLICATION_VS2015\OPENGL_4_APPLICATION_VS2015\RELEASE\STDAFX.OBJ
/OUT:"C:\USERS\LUCIA\DESKTOP\LABORATORY WORK 9 RESOURCES-11.11.2019\OPENGL_4_APPLICATION_VS2015\OPENGL_4_APPLICATION_VS2015\RELEASE\OPENGL_4_APPLICATION_VS2015.EXE" /INCREMENTAL:NO /NOLOGO /LIBPATH:GLEW /LIBPATH:GLFW OPENGL32.LIB GLEW32S.LIB GLFW3.LIB KERNEL32.LIB USER32.LIB GDI32.LIB WINSPOOL.LIB COMDLG32.LIB ADVAPI32.LIB SHELL32.LIB OLE32.LIB OLEAUT32.LIB UUID.LIB ODBC32.LIB ODBCCP32.LIB /MANIFEST /MANIFESTUAC:"level='asInvoker' uiAccess='false'" /manifest:embed /DEBUG /PDB:"C:\USERS\LUCIA\DESKTOP\LABORATORY WORK 9 RESOURCES-11.11.2019\OPENGL_4_APPLICATION_VS2015\OPENGL_4_APPLICATION_VS2015\RELEASE\OPENGL_4_APPLICATION_VS2015.PDB" /SUBSYSTEM:CONSOLE /OPT:REF /OPT:ICF /LTCG:incremental /TLBID:1 /DYNAMICBASE /NXCOMPAT /IMPLIB:"C:\USERS\LUCIA\DESKTOP\LABORATORY WORK 9 RESOURCES-11.11.2019\OPENGL_4_APPLICATION_VS2015\OPENGL_4_APPLICATION_VS2015\RELEASE\OPENGL_4_APPLICATION_VS2015.LIB" /MACHINE:X86 /SAFESEH RELEASE\CAMERA.OBJ
RELEASE\MESH.OBJ
RELEASE\MODEL3D.OBJ
RELEASE\OPENGL_4_APPLICATION_VS2015.OBJ
RELEASE\SHADER.OBJ
RELEASE\STB_IMAGE.OBJ
RELEASE\STDAFX.OBJ
^C:\USERS\LUCIA\DESKTOP\PG\LABORATORY WORK 9 RESOURCES-11.11.2019\OPENGL_4_APPLICATION_VS2015\OPENGL_4_APPLICATION_VS2015\OPENGL_4_APPLICATION_VS2015\RELEASE\CAMERA.OBJ|C:\USERS\LUCIA\DESKTOP\PG\LABORATORY WORK 9 RESOURCES-11.11.2019\OPENGL_4_APPLICATION_VS2015\OPENGL_4_APPLICATION_VS2015\OPENGL_4_APPLICATION_VS2015\RELEASE\MESH.OBJ|C:\USERS\LUCIA\DESKTOP\PG\LABORATORY WORK 9 RESOURCES-11.11.2019\OPENGL_4_APPLICATION_VS2015\OPENGL_4_APPLICATION_VS2015\OPENGL_4_APPLICATION_VS2015\RELEASE\MODEL3D.OBJ|C:\USERS\LUCIA\DESKTOP\PG\LABORATORY WORK 9 RESOURCES-11.11.2019\OPENGL_4_APPLICATION_VS2015\OPENGL_4_APPLICATION_VS2015\OPENGL_4_APPLICATION_VS2015\RELEASE\OPENGL_4_APPLICATION_VS2015.OBJ|C:\USERS\LUCIA\DESKTOP\PG\LABORATORY WORK 9 RESOURCES-11.11.2019\OPENGL_4_APPLICATION_VS2015\OPENGL_4_APPLICATION_VS2015\OPENGL_4_APPLICATION_VS2015\RELEASE\SHADER.OBJ|C:\USERS\LUCIA\DESKTOP\PG\LABORATORY WORK 9 RESOURCES-11.11.2019\OPENGL_4_APPLICATION_VS2015\OPENGL_4_APPLICATION_VS2015\OPENGL_4_APPLICATION_VS2015\RELEASE\STB_IMAGE.OBJ|C:\USERS\LUCIA\DESKTOP\PG\LABORATORY WORK 9 RESOURCES-11.11.2019\OPENGL_4_APPLICATION_VS2015\OPENGL_4_APPLICATION_VS2015\OPENGL_4_APPLICATION_VS2015\RELEASE\STDAFX.OBJ
/OUT:"C:\USERS\LUCIA\DESKTOP\PG\LABORATORY WORK 9 RESOURCES-11.11.2019\OPENGL_4_APPLICATION_VS2015\OPENGL_4_APPLICATION_VS2015\RELEASE\OPENGL_4_APPLICATION_VS2015.EXE" /INCREMENTAL:NO /NOLOGO /LIBPATH:GLEW /LIBPATH:GLFW OPENGL32.LIB GLEW32S.LIB GLFW3.LIB KERNEL32.LIB USER32.LIB GDI32.LIB WINSPOOL.LIB COMDLG32.LIB ADVAPI32.LIB SHELL32.LIB OLE32.LIB OLEAUT32.LIB UUID.LIB ODBC32.LIB ODBCCP32.LIB /MANIFEST /MANIFESTUAC:"level='asInvoker' uiAccess='false'" /manifest:embed /DEBUG /PDB:"C:\USERS\LUCIA\DESKTOP\PG\LABORATORY WORK 9 RESOURCES-11.11.2019\OPENGL_4_APPLICATION_VS2015\OPENGL_4_APPLICATION_VS2015\RELEASE\OPENGL_4_APPLICATION_VS2015.PDB" /SUBSYSTEM:CONSOLE /OPT:REF /OPT:ICF /LTCG:incremental /TLBID:1 /DYNAMICBASE /NXCOMPAT /IMPLIB:"C:\USERS\LUCIA\DESKTOP\PG\LABORATORY WORK 9 RESOURCES-11.11.2019\OPENGL_4_APPLICATION_VS2015\OPENGL_4_APPLICATION_VS2015\RELEASE\OPENGL_4_APPLICATION_VS2015.LIB" /MACHINE:X86 /SAFESEH RELEASE\CAMERA.OBJ
RELEASE\MESH.OBJ
RELEASE\MODEL3D.OBJ
RELEASE\OPENGL_4_APPLICATION_VS2015.OBJ
RELEASE\SHADER.OBJ
RELEASE\STB_IMAGE.OBJ
RELEASE\STDAFX.OBJ
^C:\USERS\LUCIA\DESKTOP\OPENGL_4_APPLICATION_VS2015\OPENGL_4_APPLICATION_VS2015\OPENGL_4_APPLICATION_VS2015\RELEASE\CAMERA.OBJ|C:\USERS\LUCIA\DESKTOP\OPENGL_4_APPLICATION_VS2015\OPENGL_4_APPLICATION_VS2015\OPENGL_4_APPLICATION_VS2015\RELEASE\MESH.OBJ|C:\USERS\LUCIA\DESKTOP\OPENGL_4_APPLICATION_VS2015\OPENGL_4_APPLICATION_VS2015\OPENGL_4_APPLICATION_VS2015\RELEASE\MODEL3D.OBJ|C:\USERS\LUCIA\DESKTOP\OPENGL_4_APPLICATION_VS2015\OPENGL_4_APPLICATION_VS2015\OPENGL_4_APPLICATION_VS2015\RELEASE\OPENGL_4_APPLICATION_VS2015.OBJ|C:\USERS\LUCIA\DESKTOP\OPENGL_4_APPLICATION_VS2015\OPENGL_4_APPLICATION_VS2015\OPENGL_4_APPLICATION_VS2015\RELEASE\SHADER.OBJ|C:\USERS\LUCIA\DESKTOP\OPENGL_4_APPLICATION_VS2015\OPENGL_4_APPLICATION_VS2015\OPENGL_4_APPLICATION_VS2015\RELEASE\STB_IMAGE.OBJ|C:\USERS\LUCIA\DESKTOP\OPENGL_4_APPLICATION_VS2015\OPENGL_4_APPLICATION_VS2015\OPENGL_4_APPLICATION_VS2015\RELEASE\STDAFX.OBJ
/OUT:"C:\USERS\LUCIA\DESKTOP\OPENGL_4_APPLICATION_VS2015\OPENGL_4_APPLICATION_VS2015\RELEASE\OPENGL_4_APPLICATION_VS2015.EXE" /INCREMENTAL:NO /NOLOGO /LIBPATH:GLEW /LIBPATH:GLFW OPENGL32.LIB GLEW32S.LIB GLFW3.LIB KERNEL32.LIB USER32.LIB GDI32.LIB WINSPOOL.LIB COMDLG32.LIB ADVAPI32.LIB SHELL32.LIB OLE32.LIB OLEAUT32.LIB UUID.LIB ODBC32.LIB ODBCCP32.LIB /MANIFEST /MANIFESTUAC:"level='asInvoker' uiAccess='false'" /manifest:embed /DEBUG /PDB:"C:\USERS\LUCIA\DESKTOP\OPENGL_4_APPLICATION_VS2015\OPENGL_4_APPLICATION_VS2015\RELEASE\OPENGL_4_APPLICATION_VS2015.PDB" /SUBSYSTEM:CONSOLE /OPT:REF /OPT:ICF /LTCG:incremental /TLBID:1 /DYNAMICBASE /NXCOMPAT /IMPLIB:"C:\USERS\LUCIA\DESKTOP\OPENGL_4_APPLICATION_VS2015\OPENGL_4_APPLICATION_VS2015\RELEASE\OPENGL_4_APPLICATION_VS2015.LIB" /MACHINE:X86 /SAFESEH RELEASE\CAMERA.OBJ
RELEASE\MESH.OBJ
RELEASE\MODEL3D.OBJ
RELEASE\OPENGL_4_APPLICATION_VS2015.OBJ
RELEASE\SHADER.OBJ
RELEASE\STB_IMAGE.OBJ
RELEASE\STDAFX.OBJ
^C:\USERS\USER\DESKTOP\OBIECTE GRAFICA\OPENGL_4_APPLICATION_VS2015\OPENGL_4_APPLICATION_VS2015\OPENGL_4_APPLICATION_VS2015\RELEASE\CAMERA.OBJ|C:\USERS\USER\DESKTOP\OBIECTE GRAFICA\OPENGL_4_APPLICATION_VS2015\OPENGL_4_APPLICATION_VS2015\OPENGL_4_APPLICATION_VS2015\RELEASE\MESH.OBJ|C:\USERS\USER\DESKTOP\OBIECTE GRAFICA\OPENGL_4_APPLICATION_VS2015\OPENGL_4_APPLICATION_VS2015\OPENGL_4_APPLICATION_VS2015\RELEASE\MODEL3D.OBJ|C:\USERS\USER\DESKTOP\OBIECTE GRAFICA\OPENGL_4_APPLICATION_VS2015\OPENGL_4_APPLICATION_VS2015\OPENGL_4_APPLICATION_VS2015\RELEASE\OPENGL_4_APPLICATION_VS2015.OBJ|C:\USERS\USER\DESKTOP\OBIECTE GRAFICA\OPENGL_4_APPLICATION_VS2015\OPENGL_4_APPLICATION_VS2015\OPENGL_4_APPLICATION_VS2015\RELEASE\SHADER.OBJ|C:\USERS\USER\DESKTOP\OBIECTE GRAFICA\OPENGL_4_APPLICATION_VS2015\OPENGL_4_APPLICATION_VS2015\OPENGL_4_APPLICATION_VS2015\RELEASE\SKYBOX.OBJ|C:\USERS\USER\DESKTOP\OBIECTE GRAFICA\OPENGL_4_APPLICATION_VS2015\OPENGL_4_APPLICATION_VS2015\OPENGL_4_APPLICATION_VS2015\RELEASE\STB_IMAGE.OBJ|C:\USERS\USER\DESKTOP\OBIECTE GRAFICA\OPENGL_4_APPLICATION_VS2015\OPENGL_4_APPLICATION_VS2015\OPENGL_4_APPLICATION_VS2015\RELEASE\STDAFX.OBJ
/OUT:"C:\USERS\USER\DESKTOP\OBIECTE GRAFICA\OPENGL_4_APPLICATION_VS2015\OPENGL_4_APPLICATION_VS2015\RELEASE\OPENGL_4_APPLICATION_VS2015.EXE" /INCREMENTAL:NO /NOLOGO /LIBPATH:GLEW /LIBPATH:GLFW OPENGL32.LIB GLEW32S.LIB GLFW3.LIB KERNEL32.LIB USER32.LIB GDI32.LIB WINSPOOL.LIB COMDLG32.LIB ADVAPI32.LIB SHELL32.LIB OLE32.LIB OLEAUT32.LIB UUID.LIB ODBC32.LIB ODBCCP32.LIB /MANIFEST /MANIFESTUAC:"level='asInvoker' uiAccess='false'" /manifest:embed /DEBUG /PDB:"C:\USERS\USER\DESKTOP\OBIECTE GRAFICA\OPENGL_4_APPLICATION_VS2015\OPENGL_4_APPLICATION_VS2015\RELEASE\OPENGL_4_APPLICATION_VS2015.PDB" /SUBSYSTEM:CONSOLE /OPT:REF /OPT:ICF /LTCG:incremental /TLBID:1 /DYNAMICBASE /NXCOMPAT /IMPLIB:"C:\USERS\USER\DESKTOP\OBIECTE GRAFICA\OPENGL_4_APPLICATION_VS2015\OPENGL_4_APPLICATION_VS2015\RELEASE\OPENGL_4_APPLICATION_VS2015.LIB" /MACHINE:X86 /SAFESEH RELEASE\CAMERA.OBJ
RELEASE\MESH.OBJ
RELEASE\MODEL3D.OBJ
RELEASE\OPENGL_4_APPLICATION_VS2015.OBJ
RELEASE\SHADER.OBJ
RELEASE\SKYBOX.OBJ
RELEASE\STB_IMAGE.OBJ
RELEASE\STDAFX.OBJ
^F:\PROIECT GRAFICA ARMATA\OPENGL_4_APPLICATION_VS2015\OPENGL_4_APPLICATION_VS2015\OPENGL_4_APPLICATION_VS2015\RELEASE\CAMERA.OBJ|F:\PROIECT GRAFICA ARMATA\OPENGL_4_APPLICATION_VS2015\OPENGL_4_APPLICATION_VS2015\OPENGL_4_APPLICATION_VS2015\RELEASE\MESH.OBJ|F:\PROIECT GRAFICA ARMATA\OPENGL_4_APPLICATION_VS2015\OPENGL_4_APPLICATION_VS2015\OPENGL_4_APPLICATION_VS2015\RELEASE\MODEL3D.OBJ|F:\PROIECT GRAFICA ARMATA\OPENGL_4_APPLICATION_VS2015\OPENGL_4_APPLICATION_VS2015\OPENGL_4_APPLICATION_VS2015\RELEASE\OPENGL_4_APPLICATION_VS2015.OBJ|F:\PROIECT GRAFICA ARMATA\OPENGL_4_APPLICATION_VS2015\OPENGL_4_APPLICATION_VS2015\OPENGL_4_APPLICATION_VS2015\RELEASE\SHADER.OBJ|F:\PROIECT GRAFICA ARMATA\OPENGL_4_APPLICATION_VS2015\OPENGL_4_APPLICATION_VS2015\OPENGL_4_APPLICATION_VS2015\RELEASE\SKYBOX.OBJ|F:\PROIECT GRAFICA ARMATA\OPENGL_4_APPLICATION_VS2015\OPENGL_4_APPLICATION_VS2015\OPENGL_4_APPLICATION_VS2015\RELEASE\STB_IMAGE.OBJ|F:\PROIECT GRAFICA ARMATA\OPENGL_4_APPLICATION_VS2015\OPENGL_4_APPLICATION_VS2015\OPENGL_4_APPLICATION_VS2015\RELEASE\STDAFX.OBJ
/OUT:"F:\PROIECT GRAFICA ARMATA\OPENGL_4_APPLICATION_VS2015\OPENGL_4_APPLICATION_VS2015\RELEASE\OPENGL_4_APPLICATION_VS2015.EXE" /INCREMENTAL:NO /NOLOGO /LIBPATH:GLEW /LIBPATH:GLFW OPENGL32.LIB GLEW32S.LIB GLFW3.LIB KERNEL32.LIB USER32.LIB GDI32.LIB WINSPOOL.LIB COMDLG32.LIB ADVAPI32.LIB SHELL32.LIB OLE32.LIB OLEAUT32.LIB UUID.LIB ODBC32.LIB ODBCCP32.LIB /MANIFEST /MANIFESTUAC:"level='asInvoker' uiAccess='false'" /manifest:embed /DEBUG /PDB:"F:\PROIECT GRAFICA ARMATA\OPENGL_4_APPLICATION_VS2015\OPENGL_4_APPLICATION_VS2015\RELEASE\OPENGL_4_APPLICATION_VS2015.PDB" /SUBSYSTEM:CONSOLE /OPT:REF /OPT:ICF /LTCG:incremental /TLBID:1 /DYNAMICBASE /NXCOMPAT /IMPLIB:"F:\PROIECT GRAFICA ARMATA\OPENGL_4_APPLICATION_VS2015\OPENGL_4_APPLICATION_VS2015\RELEASE\OPENGL_4_APPLICATION_VS2015.LIB" /MACHINE:X86 /SAFESEH RELEASE\CAMERA.OBJ
RELEASE\MESH.OBJ
RELEASE\MODEL3D.OBJ
RELEASE\OPENGL_4_APPLICATION_VS2015.OBJ
RELEASE\SHADER.OBJ
RELEASE\SKYBOX.OBJ
RELEASE\STB_IMAGE.OBJ
RELEASE\STDAFX.OBJ
