^C:\USERS\USER\DESKTOP\OBIECTE GRAFICA\OPENGL_4_APPLICATION_VS2015\OPENGL_4_APPLICATION_VS2015\OPENGL_4_APPLICATION_VS2015\RELEASE\CAMERA.OBJ|C:\USERS\USER\DESKTOP\OBIECTE GRAFICA\OPENGL_4_APPLICATION_VS2015\OPENGL_4_APPLICATION_VS2015\OPENGL_4_APPLICATION_VS2015\RELEASE\MESH.OBJ|C:\USERS\USER\DESKTOP\OBIECTE GRAFICA\OPENGL_4_APPLICATION_VS2015\OPENGL_4_APPLICATION_VS2015\OPENGL_4_APPLICATION_VS2015\RELEASE\MODEL3D.OBJ|C:\USERS\USER\DESKTOP\OBIECTE GRAFICA\OPENGL_4_APPLICATION_VS2015\OPENGL_4_APPLICATION_VS2015\OPENGL_4_APPLICATION_VS2015\RELEASE\OPENGL_4_APPLICATION_VS2015.OBJ|C:\USERS\USER\DESKTOP\OBIECTE GRAFICA\OPENGL_4_APPLICATION_VS2015\OPENGL_4_APPLICATION_VS2015\OPENGL_4_APPLICATION_VS2015\RELEASE\SHADER.OBJ|C:\USERS\USER\DESKTOP\OBIECTE GRAFICA\OPENGL_4_APPLICATION_VS2015\OPENGL_4_APPLICATION_VS2015\OPENGL_4_APPLICATION_VS2015\RELEASE\SKYBOX.OBJ|C:\USERS\USER\DESKTOP\OBIECTE GRAFICA\OPENGL_4_APPLICATION_VS2015\OPENGL_4_APPLICATION_VS2015\OPENGL_4_APPLICATION_VS2015\RELEASE\STB_IMAGE.OBJ|C:\USERS\USER\DESKTOP\OBIECTE GRAFICA\OPENGL_4_APPLICATION_VS2015\OPENGL_4_APPLICATION_VS2015\OPENGL_4_APPLICATION_VS2015\RELEASE\STDAFX.OBJ
C:\PROGRAM FILES (X86)\WINDOWS KITS\10\LIB\10.0.18362.0\UM\X86\OPENGL32.LIB
C:\USERS\USER\DESKTOP\OBIECTE GRAFICA\OPENGL_4_APPLICATION_VS2015\OPENGL_4_APPLICATION_VS2015\OPENGL_4_APPLICATION_VS2015\GLEW\GLEW32S.LIB
C:\USERS\USER\DESKTOP\OBIECTE GRAFICA\OPENGL_4_APPLICATION_VS2015\OPENGL_4_APPLICATION_VS2015\OPENGL_4_APPLICATION_VS2015\GLFW\GLFW3.LIB
C:\PROGRAM FILES (X86)\WINDOWS KITS\10\LIB\10.0.18362.0\UM\X86\KERNEL32.LIB
C:\PROGRAM FILES (X86)\WINDOWS KITS\10\LIB\10.0.18362.0\UM\X86\USER32.LIB
C:\PROGRAM FILES (X86)\WINDOWS KITS\10\LIB\10.0.18362.0\UM\X86\GDI32.LIB
C:\PROGRAM FILES (X86)\WINDOWS KITS\10\LIB\10.0.18362.0\UM\X86\WINSPOOL.LIB
C:\PROGRAM FILES (X86)\WINDOWS KITS\10\LIB\10.0.18362.0\UM\X86\COMDLG32.LIB
C:\PROGRAM FILES (X86)\WINDOWS KITS\10\LIB\10.0.18362.0\UM\X86\ADVAPI32.LIB
C:\PROGRAM FILES (X86)\WINDOWS KITS\10\LIB\10.0.18362.0\UM\X86\SHELL32.LIB
C:\PROGRAM FILES (X86)\WINDOWS KITS\10\LIB\10.0.18362.0\UM\X86\OLE32.LIB
C:\PROGRAM FILES (X86)\WINDOWS KITS\10\LIB\10.0.18362.0\UM\X86\OLEAUT32.LIB
C:\PROGRAM FILES (X86)\WINDOWS KITS\10\LIB\10.0.18362.0\UM\X86\UUID.LIB
C:\PROGRAM FILES (X86)\WINDOWS KITS\10\LIB\10.0.18362.0\UM\X86\ODBC32.LIB
C:\PROGRAM FILES (X86)\WINDOWS KITS\10\LIB\10.0.18362.0\UM\X86\ODBCCP32.LIB
C:\USERS\USER\DESKTOP\OBIECTE GRAFICA\OPENGL_4_APPLICATION_VS2015\OPENGL_4_APPLICATION_VS2015\OPENGL_4_APPLICATION_VS2015\RELEASE\CAMERA.OBJ
C:\USERS\USER\DESKTOP\OBIECTE GRAFICA\OPENGL_4_APPLICATION_VS2015\OPENGL_4_APPLICATION_VS2015\OPENGL_4_APPLICATION_VS2015\RELEASE\MESH.OBJ
C:\USERS\USER\DESKTOP\OBIECTE GRAFICA\OPENGL_4_APPLICATION_VS2015\OPENGL_4_APPLICATION_VS2015\OPENGL_4_APPLICATION_VS2015\RELEASE\MODEL3D.OBJ
C:\USERS\USER\DESKTOP\OBIECTE GRAFICA\OPENGL_4_APPLICATION_VS2015\OPENGL_4_APPLICATION_VS2015\OPENGL_4_APPLICATION_VS2015\RELEASE\OPENGL_4_APPLICATION_VS2015.OBJ
C:\USERS\USER\DESKTOP\OBIECTE GRAFICA\OPENGL_4_APPLICATION_VS2015\OPENGL_4_APPLICATION_VS2015\OPENGL_4_APPLICATION_VS2015\RELEASE\SHADER.OBJ
C:\USERS\USER\DESKTOP\OBIECTE GRAFICA\OPENGL_4_APPLICATION_VS2015\OPENGL_4_APPLICATION_VS2015\OPENGL_4_APPLICATION_VS2015\RELEASE\SKYBOX.OBJ
C:\USERS\USER\DESKTOP\OBIECTE GRAFICA\OPENGL_4_APPLICATION_VS2015\OPENGL_4_APPLICATION_VS2015\OPENGL_4_APPLICATION_VS2015\RELEASE\STB_IMAGE.OBJ
C:\USERS\USER\DESKTOP\OBIECTE GRAFICA\OPENGL_4_APPLICATION_VS2015\OPENGL_4_APPLICATION_VS2015\OPENGL_4_APPLICATION_VS2015\RELEASE\STDAFX.OBJ
C:\WINDOWS\GLOBALIZATION\SORTING\SORTDEFAULT.NLS
C:\PROGRAM FILES (X86)\MICROSOFT VISUAL STUDIO\2019\COMMUNITY\VC\TOOLS\MSVC\14.23.28105\BIN\HOSTX86\X86\C2.DLL
C:\PROGRAM FILES (X86)\MICROSOFT VISUAL STUDIO\2019\COMMUNITY\VC\TOOLS\MSVC\14.23.28105\LIB\X86\MSVCPRT.LIB
C:\PROGRAM FILES (X86)\MICROSOFT VISUAL STUDIO\2019\COMMUNITY\VC\TOOLS\MSVC\14.23.28105\LIB\X86\MSVCRT.LIB
C:\PROGRAM FILES (X86)\MICROSOFT VISUAL STUDIO\2019\COMMUNITY\VC\TOOLS\MSVC\14.23.28105\LIB\X86\OLDNAMES.LIB
C:\PROGRAM FILES (X86)\MICROSOFT VISUAL STUDIO\2019\COMMUNITY\VC\TOOLS\MSVC\14.23.28105\LIB\X86\LIBCMT.LIB
C:\PROGRAM FILES (X86)\MICROSOFT VISUAL STUDIO\2019\COMMUNITY\VC\TOOLS\MSVC\14.23.28105\LIB\X86\VCRUNTIME.LIB
C:\PROGRAM FILES (X86)\WINDOWS KITS\10\LIB\10.0.18362.0\UCRT\X86\UCRT.LIB
C:\PROGRAM FILES (X86)\MICROSOFT VISUAL STUDIO\2019\COMMUNITY\VC\TOOLS\MSVC\14.23.28105\BIN\HOSTX86\X86\1033\LINKUI.DLL
C:\PROGRAM FILES (X86)\MICROSOFT VISUAL STUDIO\2019\COMMUNITY\VC\TOOLS\MSVC\14.23.28105\BIN\HOSTX86\X86\CVTRES.EXE
C:\WINDOWS\SYSTEM32\TZRES.DLL
^F:\PROIECT GRAFICA ARMATA\OPENGL_4_APPLICATION_VS2015\OPENGL_4_APPLICATION_VS2015\OPENGL_4_APPLICATION_VS2015\RELEASE\CAMERA.OBJ|F:\PROIECT GRAFICA ARMATA\OPENGL_4_APPLICATION_VS2015\OPENGL_4_APPLICATION_VS2015\OPENGL_4_APPLICATION_VS2015\RELEASE\MESH.OBJ|F:\PROIECT GRAFICA ARMATA\OPENGL_4_APPLICATION_VS2015\OPENGL_4_APPLICATION_VS2015\OPENGL_4_APPLICATION_VS2015\RELEASE\MODEL3D.OBJ|F:\PROIECT GRAFICA ARMATA\OPENGL_4_APPLICATION_VS2015\OPENGL_4_APPLICATION_VS2015\OPENGL_4_APPLICATION_VS2015\RELEASE\OPENGL_4_APPLICATION_VS2015.OBJ|F:\PROIECT GRAFICA ARMATA\OPENGL_4_APPLICATION_VS2015\OPENGL_4_APPLICATION_VS2015\OPENGL_4_APPLICATION_VS2015\RELEASE\SHADER.OBJ|F:\PROIECT GRAFICA ARMATA\OPENGL_4_APPLICATION_VS2015\OPENGL_4_APPLICATION_VS2015\OPENGL_4_APPLICATION_VS2015\RELEASE\SKYBOX.OBJ|F:\PROIECT GRAFICA ARMATA\OPENGL_4_APPLICATION_VS2015\OPENGL_4_APPLICATION_VS2015\OPENGL_4_APPLICATION_VS2015\RELEASE\STB_IMAGE.OBJ|F:\PROIECT GRAFICA ARMATA\OPENGL_4_APPLICATION_VS2015\OPENGL_4_APPLICATION_VS2015\OPENGL_4_APPLICATION_VS2015\RELEASE\STDAFX.OBJ
C:\PROGRAM FILES (X86)\WINDOWS KITS\10\LIB\10.0.18362.0\UM\X86\OPENGL32.LIB
F:\PROIECT GRAFICA ARMATA\OPENGL_4_APPLICATION_VS2015\OPENGL_4_APPLICATION_VS2015\OPENGL_4_APPLICATION_VS2015\GLEW\GLEW32S.LIB
F:\PROIECT GRAFICA ARMATA\OPENGL_4_APPLICATION_VS2015\OPENGL_4_APPLICATION_VS2015\OPENGL_4_APPLICATION_VS2015\GLFW\GLFW3.LIB
C:\PROGRAM FILES (X86)\WINDOWS KITS\10\LIB\10.0.18362.0\UM\X86\KERNEL32.LIB
C:\PROGRAM FILES (X86)\WINDOWS KITS\10\LIB\10.0.18362.0\UM\X86\USER32.LIB
C:\PROGRAM FILES (X86)\WINDOWS KITS\10\LIB\10.0.18362.0\UM\X86\GDI32.LIB
C:\PROGRAM FILES (X86)\WINDOWS KITS\10\LIB\10.0.18362.0\UM\X86\WINSPOOL.LIB
C:\PROGRAM FILES (X86)\WINDOWS KITS\10\LIB\10.0.18362.0\UM\X86\COMDLG32.LIB
C:\PROGRAM FILES (X86)\WINDOWS KITS\10\LIB\10.0.18362.0\UM\X86\ADVAPI32.LIB
C:\PROGRAM FILES (X86)\WINDOWS KITS\10\LIB\10.0.18362.0\UM\X86\SHELL32.LIB
C:\PROGRAM FILES (X86)\WINDOWS KITS\10\LIB\10.0.18362.0\UM\X86\OLE32.LIB
C:\PROGRAM FILES (X86)\WINDOWS KITS\10\LIB\10.0.18362.0\UM\X86\OLEAUT32.LIB
C:\PROGRAM FILES (X86)\WINDOWS KITS\10\LIB\10.0.18362.0\UM\X86\UUID.LIB
C:\PROGRAM FILES (X86)\WINDOWS KITS\10\LIB\10.0.18362.0\UM\X86\ODBC32.LIB
C:\PROGRAM FILES (X86)\WINDOWS KITS\10\LIB\10.0.18362.0\UM\X86\ODBCCP32.LIB
F:\PROIECT GRAFICA ARMATA\OPENGL_4_APPLICATION_VS2015\OPENGL_4_APPLICATION_VS2015\OPENGL_4_APPLICATION_VS2015\RELEASE\CAMERA.OBJ
F:\PROIECT GRAFICA ARMATA\OPENGL_4_APPLICATION_VS2015\OPENGL_4_APPLICATION_VS2015\OPENGL_4_APPLICATION_VS2015\RELEASE\MESH.OBJ
F:\PROIECT GRAFICA ARMATA\OPENGL_4_APPLICATION_VS2015\OPENGL_4_APPLICATION_VS2015\OPENGL_4_APPLICATION_VS2015\RELEASE\MODEL3D.OBJ
F:\PROIECT GRAFICA ARMATA\OPENGL_4_APPLICATION_VS2015\OPENGL_4_APPLICATION_VS2015\OPENGL_4_APPLICATION_VS2015\RELEASE\OPENGL_4_APPLICATION_VS2015.OBJ
F:\PROIECT GRAFICA ARMATA\OPENGL_4_APPLICATION_VS2015\OPENGL_4_APPLICATION_VS2015\OPENGL_4_APPLICATION_VS2015\RELEASE\SHADER.OBJ
F:\PROIECT GRAFICA ARMATA\OPENGL_4_APPLICATION_VS2015\OPENGL_4_APPLICATION_VS2015\OPENGL_4_APPLICATION_VS2015\RELEASE\SKYBOX.OBJ
F:\PROIECT GRAFICA ARMATA\OPENGL_4_APPLICATION_VS2015\OPENGL_4_APPLICATION_VS2015\OPENGL_4_APPLICATION_VS2015\RELEASE\STB_IMAGE.OBJ
F:\PROIECT GRAFICA ARMATA\OPENGL_4_APPLICATION_VS2015\OPENGL_4_APPLICATION_VS2015\OPENGL_4_APPLICATION_VS2015\RELEASE\STDAFX.OBJ
C:\WINDOWS\GLOBALIZATION\SORTING\SORTDEFAULT.NLS
C:\PROGRAM FILES (X86)\MICROSOFT VISUAL STUDIO\2019\COMMUNITY\VC\TOOLS\MSVC\14.23.28105\BIN\HOSTX86\X86\C2.DLL
C:\PROGRAM FILES (X86)\MICROSOFT VISUAL STUDIO\2019\COMMUNITY\VC\TOOLS\MSVC\14.23.28105\LIB\X86\MSVCPRT.LIB
C:\PROGRAM FILES (X86)\MICROSOFT VISUAL STUDIO\2019\COMMUNITY\VC\TOOLS\MSVC\14.23.28105\LIB\X86\MSVCRT.LIB
C:\PROGRAM FILES (X86)\MICROSOFT VISUAL STUDIO\2019\COMMUNITY\VC\TOOLS\MSVC\14.23.28105\LIB\X86\OLDNAMES.LIB
C:\PROGRAM FILES (X86)\MICROSOFT VISUAL STUDIO\2019\COMMUNITY\VC\TOOLS\MSVC\14.23.28105\LIB\X86\LIBCMT.LIB
C:\PROGRAM FILES (X86)\MICROSOFT VISUAL STUDIO\2019\COMMUNITY\VC\TOOLS\MSVC\14.23.28105\LIB\X86\VCRUNTIME.LIB
C:\PROGRAM FILES (X86)\WINDOWS KITS\10\LIB\10.0.18362.0\UCRT\X86\UCRT.LIB
C:\PROGRAM FILES (X86)\MICROSOFT VISUAL STUDIO\2019\COMMUNITY\VC\TOOLS\MSVC\14.23.28105\BIN\HOSTX86\X86\1033\LINKUI.DLL
C:\PROGRAM FILES (X86)\MICROSOFT VISUAL STUDIO\2019\COMMUNITY\VC\TOOLS\MSVC\14.23.28105\BIN\HOSTX86\X86\CVTRES.EXE
C:\WINDOWS\SYSTEM32\TZRES.DLL
C:\PROGRAM FILES (X86)\MICROSOFT VISUAL STUDIO\2019\COMMUNITY\VC\TOOLS\MSVC\14.23.28105\BIN\HOSTX86\X86\MSPDBSRV.EXE
